{
  "request": {
    "method": "GET",
    "urlPath": "/citys-by-name",
    "queryParameters": {
      "page": {
        "equalTo": "1"
      },
      "perPage": {
        "equalTo": "10"
      }
    }
  },
  "response": {
    "fixedDelayMilliseconds": 2000,
    "status": 200,
    "jsonBody": {
      "metadata": {
        "currentPage": 1,
        "itemsPerPage": 10,
        "totalPages": 2,
        "totalItems": 16,
        "isLastPage": false
      },
      "items": [
        {
          "id": "",
          "slug": "abadia-de-goias",
          "name": "Abadia de Goiás"
        },
        {
          "id": "",
          "slug": "abadia-dos-dourados",
          "name": "Abadia dos Dourados"
        },
        {
          "id": "",
          "slug": "abadiania",
          "name": "Abadiânia"
        },
        {
          "id": "",
          "slug": "abaete",
          "name": "Abaeté"
        },
        {
          "id": "",
          "slug": "abaetetuba",
          "name": "Abaetetuba"
        },
        {
          "id": "",
          "slug": "abaiara",
          "name": "Abaiara"
        },
        {
          "id": "",
          "slug": "abaira",
          "name": "Abaíra"
        },
        {
          "id": "",
          "slug": "abare",
          "name": "Abaré"
        },
        {
          "id": "",
          "slug": "abatia",
          "name": "Abatiá"
        },
        {
          "id": "",
          "slug": "abdon-batista",
          "name": "Abdon Batista"
        }
      ]
    },
    "headers": {
      "Content-Type": "application/json"
    }
  }
}