{
  "request": {
    "method": "GET",
    "urlPathPattern": "/cities/(.*)/farmers-market",
    "queryParameters": {
      "page": {
        "equalTo": "1"
      },
      "perPage": {
        "equalTo": "10"
      }
    }
  },
  "response": {
    "fixedDelayMilliseconds": 2000,
    "status": 200,
    "jsonBody": {
      "metadata": {
        "currentPage": 1,
        "itemsPerPage": 10,
        "totalPages": 2,
        "totalItems": 16,
        "isLastPage": false
      },
      "items": [
        {
          "id": "c35d7f6b-89b9-4c89-9f92-3eac4b05d52d",
          "name": "Feira Orgânica do Parque",
          "neighborhood": {
            "name": "Centro",
            "slug": "centro",
            "location": {
              "lat": -23.5505199,
              "long": -46.6333094
            }
          },
          "frequency": "saturday",
          "startTime": "2024-03-16T08:00:00Z",
          "endTime": "2024-03-16T10:00:00Z"
        },
        {
          "id": "4184d739-6ad1-460e-925a-5c440819e92e",
          "name": "Feira da Pizza",
          "neighborhood": {
            "name": "Bairro Alegre",
            "slug": "bairro-alegre",
            "location": {
              "lat": -23.578166,
              "long": -46.643731
            }
          },
          "frequency": "monday",
          "startTime": "2024-03-20T18:30:00Z",
          "endTime": "2024-03-20T21:00:00Z"
        },
        {
          "id": "72a49d81-3b62-4ff5-87fc-14e9fd3a44cf",
          "name": "Feira Cultural do Saber",
          "neighborhood": {
            "name": "Jardim do Conhecimento",
            "slug": "jardim-do-conhecimento",
            "location": {
              "lat": -23.5629,
              "long": -46.6544
            }
          },
          "frequency": "sunday",
          "startTime": "2024-03-22T10:00:00Z",
          "endTime": "2024-03-22T16:00:00Z"
        },
        {
          "id": "a2727d0c-2b17-4b40-bf80-6d5376b46bc8",
          "name": "Feira Literária Municipal",
          "neighborhood": {
            "name": "Cidade Nova",
            "slug": "cidade-nova",
            "location": {
              "lat": -23.5488,
              "long": -46.6387
            }
          },
          "frequency": "thursday",
          "startTime": "2024-03-18T09:00:00Z",
          "endTime": "2024-03-18T18:00:00Z"
        },
        {
          "id": "b6a1a5e8-3ab8-48de-b393-81b5ec88e09f",
          "name": "Feira da Colheita",
          "neighborhood": {
            "name": "Centro",
            "slug": "centro",
            "location": {
              "lat": -23.5425,
              "long": -46.6295
            }
          },
          "frequency": "saturday",
          "startTime": "2024-03-17T07:00:00Z",
          "endTime": "2024-03-17T14:00:00Z"
        },
        {
          "id": "8cf6f029-55c6-49f0-85cb-d4409d6b5e05",
          "name": "Feira Cinematográfica",
          "neighborhood": {
            "name": "Vila Esperança",
            "slug": "vila-esperanca",
            "location": {
              "lat": -23.5357,
              "long": -46.5311
            }
          },
          "frequency": "wednesday",
          "startTime": "2024-03-19T15:00:00Z",
          "endTime": "2024-03-19T18:00:00Z"
        },
        {
          "id": "a90836a6-520b-4e12-bbe3-6167929bc485",
          "name": "Feira Gastronômica dos Jardins",
          "neighborhood": {
            "name": "Jardins",
            "slug": "jardins",
            "location": {
              "lat": -23.5687,
              "long": -46.6639
            }
          },
          "frequency": "saturday",
          "startTime": "2024-03-21T12:00:00Z",
          "endTime": "2024-03-21T14:00:00Z"
        },
        {
          "id": "ef15e8d2-96fc-4da7-920e-cbc02521c57d",
          "name": "Feira Fitness",
          "neighborhood": {
            "name": "Jardim Atlântico",
            "slug": "jardim-atlantico",
            "location": {
              "lat": -23.5906,
              "long": -46.6718
            }
          },
          "frequency": "monday",
          "startTime": "2024-03-16T06:30:00Z",
          "endTime": "2024-03-16T20:00:00Z"
        },
        {
          "id": "a44f3c88-0a8e-45ed-96fb-cab4d095bd6a",
          "name": "Feira Cultural do Teatro",
          "neighborhood": {
            "name": "Centro",
            "slug": "centro",
            "location": {
              "lat": -23.5475,
              "long": -46.6361
            }
          },
          "frequency": "friday",
          "startTime": "2024-03-25T19:00:00Z",
          "endTime": "2024-03-25T22:00:00Z"
        },
        {
          "id": "b6f7d68d-f8c5-4265-95d5-92b06fc240b3",
          "name": "Feira da Juventude",
          "neighborhood": {
            "name": "Vila Progresso",
            "slug": "vila-progresso",
            "location": {
              "lat": -23.5579,
              "long": -46.5543
            }
          },
          "frequency": "thursday",
          "startTime": "2024-03-20T16:00:00Z",
          "endTime": "2024-03-20T19:00:00Z"
        }
      ]
    },
    "headers": {
      "Content-Type": "application/json"
    }
  }
}
