{
  "request": {
    "method": "GET",
    "urlPathPattern": "/(.+)/exhibitors",
    "queryParameters": {
      "page": {
        "equalTo": "2"
      },
      "perPage": {
        "equalTo": "10"
      }
    },
    "headers": {
      "Slug-Exhibitors": {
        "absent": true
      }
    }
  },
  "response": {
    "fixedDelayMilliseconds": 2000,
    "status": 200,
    "jsonBody": {
      "metadata": {
        "currentPage": 1,
        "itemsPerPage": 10,
        "totalPages": 2,
        "totalItems": 16,
        "isLastPage": true
      },
      "items": [
        {
          "id": "dbe45e7e-8be7-4a5a-9b6c-f73b6c163a9c",
          "name": "Barraca da Sofia",
          "slug": "barraca-da-sofia",
          "description": "Plantas ornamentais e ervas medicinais!",
          "whatsApp": "67968883067",
          "website": "http://www.barracadasofia.com",
          "phone": "71997897475",
          "items": ["Cactos", "Hortelã", "Lavanda"]
        },
        {
          "id": "867f3a2d-78a4-46e8-bdb2-527d476da36e",
          "name": "Barraca do Miguel",
          "slug": "barraca-do-miguel",
          "description": "Melhores queijos e laticínios da região!",
          "whatsApp": "83989632325",
          "website": "http://www.barracadomiguel.com",
          "phone": "99969333769",
          "items": ["Queijo Gouda", "Manteiga Artesanal", "Iogurte Natural"]
        },
        {
          "id": "f6c22d9c-8d10-4e0f-82fc-29a9c1fd73cb",
          "name": "Barraca da Lúcia",
          "slug": "barraca-da-lucia",
          "description": "Doces caseiros feitos com carinho!",
          "website": "http://www.barracadalucia.com",
          "phone": "91980636436",
          "items": ["Doce de Leite", "Goiabada", "Compota de Abacaxi"]
        },
        {
          "id": "ff9bb05d-5e40-4b90-8f89-8e6bfe7fd95d",
          "name": "Barraca do Marcos",
          "slug": "barraca-do-marcos",
          "description": "Delícias da culinária árabe!",
          "whatsApp": "82974415665",
          "website": "http://www.barracadomarcos.com",
          "phone": "61968902173",
          "items": ["Quibe", "Esfiha", "Baba Ganoush"]
        },
        {
          "id": "d9b17b23-bce3-4b51-8378-3d26e0ec07b5",
          "name": "Barraca da Laura",
          "slug": "barraca-da-laura",
          "description": "Plantas e ervas aromáticas para sua horta!",
          "whatsApp": "92997521008",
          "website": "http://www.barracadalaura.com",
          "phone": "63973597394",
          "items": ["Manjericão Roxo", "Tomilho", "Alecrim"]
        },
        {
          "id": "c61f8a29-28a0-4628-9fc3-00f2ad2b0635",
          "name": "Barraca do Lucas",
          "slug": "barraca-do-lucas",
          "description": "Melhores frutas e sucos naturais!",
          "website": "http://www.barracadolucas.com",
          "phone": "96984554952",
          "items": ["Suco de Laranja Natural", "Uvas", "Melancias"]
        }
      ]
    },
    "headers": {
      "Content-Type": "application/json"
    }
  }
}
