{
  "request": {
    "method": "GET",
    "urlPath": "/cities",
    "queryParameters": {
      "page": {
        "equalTo": "1"
      },
      "perPage": {
        "equalTo": "10"
      }
    }
  },
  "response": {
    "fixedDelayMilliseconds": 2000,
    "status": 200,
    "jsonBody": {
      "metadata": {
        "currentPage": 1,
        "itemsPerPage": 10,
        "totalPages": 2,
        "totalItems": 16,
        "isLastPage": false
      },
      "items": [
        {
          "id": "123e4567-e89b-12d3-a456-426614174000",
          "slug": "abadia-de-goias",
          "name": "Abadia de Goiás"
        },
        {
          "id": "223e4567-e89b-12d3-a456-426614174001",
          "slug": "abadia-dos-dourados",
          "name": "Abadia dos Dourados"
        },
        {
          "id": "323e4567-e89b-12d3-a456-426614174002",
          "slug": "abadiania",
          "name": "Abadiânia"
        },
        {
          "id": "423e4567-e89b-12d3-a456-426614174003",
          "slug": "abaete",
          "name": "Abaeté"
        },
        {
          "id": "523e4567-e89b-12d3-a456-426614174004",
          "slug": "abaetetuba",
          "name": "Abaetetuba"
        },
        {
          "id": "623e4567-e89b-12d3-a456-426614174005",
          "slug": "abaiara",
          "name": "Abaiara"
        },
        {
          "id": "723e4567-e89b-12d3-a456-426614174006",
          "slug": "abaira",
          "name": "Abaíra"
        },
        {
          "id": "823e4567-e89b-12d3-a456-426614174007",
          "slug": "abare",
          "name": "Abaré"
        },
        {
          "id": "923e4567-e89b-12d3-a456-426614174008",
          "slug": "abatia",
          "name": "Abatiá"
        },
        {
          "id": "a23e4567-e89b-12d3-a456-426614174009",
          "slug": "abdon-batista",
          "name": "Abdon Batista"
        }
      ]
    },
    "headers": {
      "Content-Type": "application/json"
    }
  }
}